Started at Tue Jul 28 15:13:31 UTC 2020
Finished at Tue Jul 28 15:13:31 UTC 2020. 13ms
Started at Tue Jul 28 15:18:31 UTC 2020
Finished at Tue Jul 28 15:18:31 UTC 2020. 6ms
Started at Tue Jul 28 15:23:31 UTC 2020
Finished at Tue Jul 28 15:23:31 UTC 2020. 5ms
Started at Tue Jul 28 15:28:31 UTC 2020
Finished at Tue Jul 28 15:28:31 UTC 2020. 5ms
Started at Tue Jul 28 15:33:31 UTC 2020
Finished at Tue Jul 28 15:33:31 UTC 2020. 9ms
Started at Tue Jul 28 15:38:31 UTC 2020
Finished at Tue Jul 28 15:38:31 UTC 2020. 4ms
Started at Tue Jul 28 15:43:31 UTC 2020
Finished at Tue Jul 28 15:43:31 UTC 2020. 6ms
Started at Tue Jul 28 15:48:31 UTC 2020
Finished at Tue Jul 28 15:48:31 UTC 2020. 8ms
Started at Tue Jul 28 15:53:31 UTC 2020
Finished at Tue Jul 28 15:53:31 UTC 2020. 8ms
Started at Tue Jul 28 15:58:31 UTC 2020
Finished at Tue Jul 28 15:58:31 UTC 2020. 5ms
Started at Tue Jul 28 16:03:31 UTC 2020
Finished at Tue Jul 28 16:03:31 UTC 2020. 5ms
Started at Tue Jul 28 16:08:31 UTC 2020
Finished at Tue Jul 28 16:08:31 UTC 2020. 13ms
Started at Tue Jul 28 16:13:31 UTC 2020
Finished at Tue Jul 28 16:13:31 UTC 2020. 6ms
Started at Tue Jul 28 16:18:31 UTC 2020
Finished at Tue Jul 28 16:18:31 UTC 2020. 5ms
Started at Tue Jul 28 16:23:31 UTC 2020
Finished at Tue Jul 28 16:23:31 UTC 2020. 11ms
Started at Tue Jul 28 16:28:31 UTC 2020
Finished at Tue Jul 28 16:28:31 UTC 2020. 5ms
Started at Tue Jul 28 16:33:31 UTC 2020
Finished at Tue Jul 28 16:33:31 UTC 2020. 5ms
Started at Tue Jul 28 16:38:31 UTC 2020
Finished at Tue Jul 28 16:38:31 UTC 2020. 8ms
Started at Tue Jul 28 16:43:31 UTC 2020
Finished at Tue Jul 28 16:43:31 UTC 2020. 9ms
Started at Tue Jul 28 16:48:31 UTC 2020
Finished at Tue Jul 28 16:48:31 UTC 2020. 7ms
Started at Tue Jul 28 16:53:31 UTC 2020
Finished at Tue Jul 28 16:53:31 UTC 2020. 9ms
Started at Tue Jul 28 16:58:31 UTC 2020
Finished at Tue Jul 28 16:58:31 UTC 2020. 6ms
Started at Tue Jul 28 17:03:31 UTC 2020
Finished at Tue Jul 28 17:03:31 UTC 2020. 7ms
Started at Tue Jul 28 17:08:31 UTC 2020
Finished at Tue Jul 28 17:08:31 UTC 2020. 5ms
Started at Tue Jul 28 17:13:31 UTC 2020
Finished at Tue Jul 28 17:13:31 UTC 2020. 9ms
Started at Tue Jul 28 17:18:31 UTC 2020
Finished at Tue Jul 28 17:18:31 UTC 2020. 6ms
Started at Tue Jul 28 17:23:31 UTC 2020
Finished at Tue Jul 28 17:23:31 UTC 2020. 5ms
Started at Tue Jul 28 17:28:31 UTC 2020
Finished at Tue Jul 28 17:28:31 UTC 2020. 17ms
Started at Tue Jul 28 17:33:31 UTC 2020
Finished at Tue Jul 28 17:33:31 UTC 2020. 6ms
Started at Tue Jul 28 17:38:31 UTC 2020
Finished at Tue Jul 28 17:38:31 UTC 2020. 5ms
Started at Tue Jul 28 17:43:31 UTC 2020
Finished at Tue Jul 28 17:43:31 UTC 2020. 11ms
Started at Tue Jul 28 17:48:31 UTC 2020
Finished at Tue Jul 28 17:48:31 UTC 2020. 5ms
Started at Tue Jul 28 17:53:31 UTC 2020
Finished at Tue Jul 28 17:53:31 UTC 2020. 15ms
Started at Tue Jul 28 17:58:31 UTC 2020
Finished at Tue Jul 28 17:58:31 UTC 2020. 6ms
Started at Tue Jul 28 18:03:31 UTC 2020
Finished at Tue Jul 28 18:03:31 UTC 2020. 6ms
Started at Tue Jul 28 18:08:31 UTC 2020
Finished at Tue Jul 28 18:08:31 UTC 2020. 5ms
Started at Tue Jul 28 18:13:31 UTC 2020
Finished at Tue Jul 28 18:13:31 UTC 2020. 6ms
Started at Tue Jul 28 18:18:31 UTC 2020
Finished at Tue Jul 28 18:18:31 UTC 2020. 9ms
Started at Tue Jul 28 18:23:31 UTC 2020
Finished at Tue Jul 28 18:23:31 UTC 2020. 8ms
Started at Tue Jul 28 18:28:31 UTC 2020
Finished at Tue Jul 28 18:28:31 UTC 2020. 7ms
Started at Tue Jul 28 18:33:31 UTC 2020
Finished at Tue Jul 28 18:33:31 UTC 2020. 5ms
Started at Tue Jul 28 18:38:31 UTC 2020
Finished at Tue Jul 28 18:38:31 UTC 2020. 12ms
Started at Tue Jul 28 18:43:31 UTC 2020
Finished at Tue Jul 28 18:43:31 UTC 2020. 4ms
Started at Tue Jul 28 18:48:31 UTC 2020
Finished at Tue Jul 28 18:48:31 UTC 2020. 4ms
Started at Tue Jul 28 18:53:31 UTC 2020
Finished at Tue Jul 28 18:53:31 UTC 2020. 6ms
Started at Tue Jul 28 18:58:31 UTC 2020
Finished at Tue Jul 28 18:58:31 UTC 2020. 5ms
Started at Tue Jul 28 19:03:31 UTC 2020
Finished at Tue Jul 28 19:03:31 UTC 2020. 5ms
Started at Tue Jul 28 19:08:31 UTC 2020
Finished at Tue Jul 28 19:08:31 UTC 2020. 6ms
Started at Tue Jul 28 19:13:31 UTC 2020
Finished at Tue Jul 28 19:13:31 UTC 2020. 7ms
Started at Tue Jul 28 19:18:31 UTC 2020
Finished at Tue Jul 28 19:18:31 UTC 2020. 4ms
Started at Tue Jul 28 19:23:31 UTC 2020
Finished at Tue Jul 28 19:23:31 UTC 2020. 14ms
Started at Tue Jul 28 19:28:31 UTC 2020
Finished at Tue Jul 28 19:28:31 UTC 2020. 6ms
Started at Tue Jul 28 19:33:31 UTC 2020
Finished at Tue Jul 28 19:33:31 UTC 2020. 5ms
Started at Tue Jul 28 19:38:31 UTC 2020
Finished at Tue Jul 28 19:38:31 UTC 2020. 7ms
Started at Tue Jul 28 19:43:31 UTC 2020
Finished at Tue Jul 28 19:43:31 UTC 2020. 6ms
Started at Tue Jul 28 19:48:31 UTC 2020
Finished at Tue Jul 28 19:48:31 UTC 2020. 5ms
Started at Tue Jul 28 19:53:31 UTC 2020
Finished at Tue Jul 28 19:53:31 UTC 2020. 5ms
Started at Tue Jul 28 19:58:31 UTC 2020
Finished at Tue Jul 28 19:58:31 UTC 2020. 6ms
