Started at Tue Jul 28 15:50:41 UTC 2020
Processing test
Offering test to Project Build Discarder
Processing test2
Offering test2 to Project Build Discarder
Processing test3
Offering test3 to Project Build Discarder
Finished at Tue Jul 28 15:50:41 UTC 2020. 40ms
Started at Tue Jul 28 16:50:41 UTC 2020
Processing test
Offering test to Project Build Discarder
Processing test2
Offering test2 to Project Build Discarder
Processing test3
Offering test3 to Project Build Discarder
Finished at Tue Jul 28 16:50:41 UTC 2020. 16ms
Started at Tue Jul 28 17:50:41 UTC 2020
Processing test
Offering test to Project Build Discarder
Processing test2
Offering test2 to Project Build Discarder
Processing test3
Offering test3 to Project Build Discarder
Finished at Tue Jul 28 17:50:41 UTC 2020. 8ms
Started at Tue Jul 28 18:50:41 UTC 2020
Processing test
Offering test to Project Build Discarder
Processing test2
Offering test2 to Project Build Discarder
Processing test3
Offering test3 to Project Build Discarder
Finished at Tue Jul 28 18:50:41 UTC 2020. 18ms
Started at Tue Jul 28 19:50:41 UTC 2020
Processing test
Offering test to Project Build Discarder
Processing test2
Offering test2 to Project Build Discarder
Processing test3
Offering test3 to Project Build Discarder
Finished at Tue Jul 28 19:50:41 UTC 2020. 9ms
