Started at Mon Jul 27 21:05:30 UTC 2020
Processing test
Offering test to Project Build Discarder
Processing test2
Offering test2 to Project Build Discarder
Finished at Mon Jul 27 21:05:30 UTC 2020. 59ms
Started at Tue Jul 28 01:49:01 UTC 2020
Processing test
Offering test to Project Build Discarder
Processing test2
Offering test2 to Project Build Discarder
Finished at Tue Jul 28 01:49:01 UTC 2020. 20ms
