Started at Mon Jul 27 16:24:54 UTC 2020
Processing test
Offering test to Project Build Discarder
Processing test2
Offering test2 to Project Build Discarder
Finished at Mon Jul 27 16:24:54 UTC 2020. 33ms
Started at Mon Jul 27 17:24:54 UTC 2020
Processing test
Offering test to Project Build Discarder
Processing test2
Offering test2 to Project Build Discarder
Finished at Mon Jul 27 17:24:54 UTC 2020. 8ms
Started at Mon Jul 27 18:24:45 UTC 2020
Processing test
Offering test to Project Build Discarder
Processing test2
Offering test2 to Project Build Discarder
Finished at Mon Jul 27 18:24:45 UTC 2020. 11ms
