Started at Mon Jul 27 13:10:16 UTC 2020
Processing test
Offering test to Project Build Discarder
Finished at Mon Jul 27 13:10:16 UTC 2020. 34ms
Started at Mon Jul 27 14:10:16 UTC 2020
Processing test
Offering test to Project Build Discarder
Finished at Mon Jul 27 14:10:16 UTC 2020. 5ms
