Started at Tue Jul 28 13:42:52 UTC 2020
Processing test
Offering test to Project Build Discarder
Processing test2
Offering test2 to Project Build Discarder
Processing test3
Offering test3 to Project Build Discarder
Finished at Tue Jul 28 13:42:52 UTC 2020. 35ms
Started at Tue Jul 28 14:42:52 UTC 2020
Processing test
Offering test to Project Build Discarder
Processing test2
Offering test2 to Project Build Discarder
Processing test3
Offering test3 to Project Build Discarder
Finished at Tue Jul 28 14:42:52 UTC 2020. 11ms
