Started at Tue Jul 28 12:59:59 UTC 2020
Finished at Tue Jul 28 12:59:59 UTC 2020. 27ms
Started at Tue Jul 28 13:02:29 UTC 2020
Finished at Tue Jul 28 13:02:29 UTC 2020. 4ms
Started at Tue Jul 28 13:04:59 UTC 2020
Finished at Tue Jul 28 13:04:59 UTC 2020. 4ms
Started at Tue Jul 28 13:07:29 UTC 2020
Finished at Tue Jul 28 13:07:29 UTC 2020. 4ms
Started at Tue Jul 28 13:09:59 UTC 2020
Finished at Tue Jul 28 13:09:59 UTC 2020. 6ms
Started at Tue Jul 28 13:12:29 UTC 2020
Finished at Tue Jul 28 13:12:29 UTC 2020. 6ms
Started at Tue Jul 28 13:14:59 UTC 2020
Finished at Tue Jul 28 13:14:59 UTC 2020. 9ms
Started at Tue Jul 28 13:17:29 UTC 2020
Finished at Tue Jul 28 13:17:29 UTC 2020. 6ms
Started at Tue Jul 28 13:19:59 UTC 2020
Finished at Tue Jul 28 13:19:59 UTC 2020. 4ms
Started at Tue Jul 28 13:22:29 UTC 2020
Finished at Tue Jul 28 13:22:29 UTC 2020. 3ms
Started at Tue Jul 28 13:24:59 UTC 2020
Finished at Tue Jul 28 13:24:59 UTC 2020. 8ms
Started at Tue Jul 28 13:27:29 UTC 2020
Finished at Tue Jul 28 13:27:29 UTC 2020. 4ms
Started at Tue Jul 28 13:29:59 UTC 2020
Finished at Tue Jul 28 13:29:59 UTC 2020. 8ms
Started at Tue Jul 28 13:32:29 UTC 2020
Finished at Tue Jul 28 13:32:29 UTC 2020. 7ms
Started at Tue Jul 28 13:34:59 UTC 2020
Finished at Tue Jul 28 13:34:59 UTC 2020. 4ms
Started at Tue Jul 28 13:37:29 UTC 2020
Finished at Tue Jul 28 13:37:29 UTC 2020. 4ms
Started at Tue Jul 28 13:39:59 UTC 2020
Finished at Tue Jul 28 13:39:59 UTC 2020. 6ms
Started at Tue Jul 28 13:42:29 UTC 2020
Finished at Tue Jul 28 13:42:29 UTC 2020. 5ms
Started at Tue Jul 28 13:44:59 UTC 2020
Finished at Tue Jul 28 13:44:59 UTC 2020. 5ms
Started at Tue Jul 28 13:47:29 UTC 2020
Finished at Tue Jul 28 13:47:29 UTC 2020. 4ms
Started at Tue Jul 28 13:49:59 UTC 2020
Finished at Tue Jul 28 13:49:59 UTC 2020. 6ms
Started at Tue Jul 28 13:52:29 UTC 2020
Finished at Tue Jul 28 13:52:29 UTC 2020. 7ms
Started at Tue Jul 28 13:54:59 UTC 2020
Finished at Tue Jul 28 13:54:59 UTC 2020. 5ms
Started at Tue Jul 28 13:57:29 UTC 2020
Finished at Tue Jul 28 13:57:29 UTC 2020. 4ms
Started at Tue Jul 28 13:59:59 UTC 2020
Finished at Tue Jul 28 13:59:59 UTC 2020. 4ms
Started at Tue Jul 28 14:02:29 UTC 2020
Finished at Tue Jul 28 14:02:29 UTC 2020. 7ms
Started at Tue Jul 28 14:04:59 UTC 2020
Finished at Tue Jul 28 14:04:59 UTC 2020. 6ms
Started at Tue Jul 28 14:07:29 UTC 2020
Finished at Tue Jul 28 14:07:29 UTC 2020. 8ms
Started at Tue Jul 28 14:09:59 UTC 2020
Finished at Tue Jul 28 14:09:59 UTC 2020. 3ms
Started at Tue Jul 28 14:12:29 UTC 2020
Finished at Tue Jul 28 14:12:29 UTC 2020. 3ms
Started at Tue Jul 28 14:14:59 UTC 2020
Finished at Tue Jul 28 14:14:59 UTC 2020. 7ms
Started at Tue Jul 28 14:17:29 UTC 2020
Finished at Tue Jul 28 14:17:29 UTC 2020. 4ms
Started at Tue Jul 28 14:19:59 UTC 2020
Finished at Tue Jul 28 14:19:59 UTC 2020. 4ms
Started at Tue Jul 28 14:22:29 UTC 2020
Finished at Tue Jul 28 14:22:29 UTC 2020. 9ms
Started at Tue Jul 28 14:24:59 UTC 2020
Finished at Tue Jul 28 14:24:59 UTC 2020. 4ms
Started at Tue Jul 28 14:27:29 UTC 2020
Finished at Tue Jul 28 14:27:29 UTC 2020. 4ms
Started at Tue Jul 28 14:29:59 UTC 2020
Finished at Tue Jul 28 14:29:59 UTC 2020. 8ms
Started at Tue Jul 28 14:32:29 UTC 2020
Finished at Tue Jul 28 14:32:29 UTC 2020. 13ms
Started at Tue Jul 28 14:34:59 UTC 2020
Finished at Tue Jul 28 14:34:59 UTC 2020. 6ms
Started at Tue Jul 28 14:37:29 UTC 2020
Finished at Tue Jul 28 14:37:29 UTC 2020. 4ms
Started at Tue Jul 28 14:39:59 UTC 2020
Finished at Tue Jul 28 14:39:59 UTC 2020. 6ms
Started at Tue Jul 28 14:42:29 UTC 2020
Finished at Tue Jul 28 14:42:29 UTC 2020. 6ms
Started at Tue Jul 28 14:44:59 UTC 2020
Finished at Tue Jul 28 14:44:59 UTC 2020. 4ms
Started at Tue Jul 28 14:47:29 UTC 2020
Finished at Tue Jul 28 14:47:29 UTC 2020. 4ms
Started at Tue Jul 28 14:49:59 UTC 2020
Finished at Tue Jul 28 14:49:59 UTC 2020. 5ms
Started at Tue Jul 28 14:52:29 UTC 2020
Finished at Tue Jul 28 14:52:29 UTC 2020. 7ms
Started at Tue Jul 28 14:54:59 UTC 2020
Finished at Tue Jul 28 14:54:59 UTC 2020. 4ms
Started at Tue Jul 28 14:57:29 UTC 2020
Finished at Tue Jul 28 14:57:29 UTC 2020. 7ms
Started at Tue Jul 28 14:59:59 UTC 2020
Finished at Tue Jul 28 14:59:59 UTC 2020. 11ms
Started at Tue Jul 28 15:02:29 UTC 2020
Finished at Tue Jul 28 15:02:29 UTC 2020. 4ms
Started at Tue Jul 28 15:04:59 UTC 2020
Finished at Tue Jul 28 15:04:59 UTC 2020. 5ms
Started at Tue Jul 28 15:07:29 UTC 2020
Finished at Tue Jul 28 15:07:29 UTC 2020. 4ms
Started at Tue Jul 28 15:09:59 UTC 2020
Finished at Tue Jul 28 15:09:59 UTC 2020. 5ms
