Started at Mon Jul 27 13:07:36 UTC 2020
Finished at Mon Jul 27 13:07:36 UTC 2020. 34ms
Started at Mon Jul 27 13:10:06 UTC 2020
Finished at Mon Jul 27 13:10:06 UTC 2020. 5ms
Started at Mon Jul 27 13:12:36 UTC 2020
Finished at Mon Jul 27 13:12:36 UTC 2020. 7ms
Started at Mon Jul 27 13:15:06 UTC 2020
Finished at Mon Jul 27 13:15:06 UTC 2020. 4ms
Started at Mon Jul 27 13:17:36 UTC 2020
Finished at Mon Jul 27 13:17:36 UTC 2020. 8ms
Started at Mon Jul 27 13:20:06 UTC 2020
Finished at Mon Jul 27 13:20:06 UTC 2020. 5ms
Started at Mon Jul 27 13:22:36 UTC 2020
Finished at Mon Jul 27 13:22:36 UTC 2020. 4ms
Started at Mon Jul 27 13:25:06 UTC 2020
Finished at Mon Jul 27 13:25:06 UTC 2020. 8ms
Started at Mon Jul 27 13:27:36 UTC 2020
Finished at Mon Jul 27 13:27:36 UTC 2020. 8ms
Started at Mon Jul 27 13:30:06 UTC 2020
Finished at Mon Jul 27 13:30:06 UTC 2020. 4ms
Started at Mon Jul 27 13:32:36 UTC 2020
Finished at Mon Jul 27 13:32:36 UTC 2020. 4ms
Started at Mon Jul 27 13:35:06 UTC 2020
Finished at Mon Jul 27 13:35:06 UTC 2020. 4ms
Started at Mon Jul 27 13:37:36 UTC 2020
Finished at Mon Jul 27 13:37:36 UTC 2020. 5ms
Started at Mon Jul 27 13:40:06 UTC 2020
Finished at Mon Jul 27 13:40:06 UTC 2020. 4ms
Started at Mon Jul 27 13:42:36 UTC 2020
Finished at Mon Jul 27 13:42:36 UTC 2020. 8ms
Started at Mon Jul 27 13:45:06 UTC 2020
Finished at Mon Jul 27 13:45:06 UTC 2020. 5ms
Started at Mon Jul 27 13:47:36 UTC 2020
Finished at Mon Jul 27 13:47:36 UTC 2020. 4ms
Started at Mon Jul 27 13:50:06 UTC 2020
Finished at Mon Jul 27 13:50:06 UTC 2020. 8ms
Started at Mon Jul 27 13:52:36 UTC 2020
Finished at Mon Jul 27 13:52:36 UTC 2020. 4ms
Started at Mon Jul 27 13:55:06 UTC 2020
Finished at Mon Jul 27 13:55:06 UTC 2020. 9ms
Started at Mon Jul 27 13:57:36 UTC 2020
Finished at Mon Jul 27 13:57:36 UTC 2020. 6ms
Started at Mon Jul 27 14:00:06 UTC 2020
Finished at Mon Jul 27 14:00:06 UTC 2020. 9ms
Started at Mon Jul 27 14:02:36 UTC 2020
Finished at Mon Jul 27 14:02:36 UTC 2020. 8ms
Started at Mon Jul 27 14:05:06 UTC 2020
Finished at Mon Jul 27 14:05:06 UTC 2020. 13ms
Started at Mon Jul 27 14:07:36 UTC 2020
Finished at Mon Jul 27 14:07:36 UTC 2020. 4ms
Started at Mon Jul 27 14:10:06 UTC 2020
Finished at Mon Jul 27 14:10:06 UTC 2020. 4ms
Started at Mon Jul 27 14:12:36 UTC 2020
Finished at Mon Jul 27 14:12:36 UTC 2020. 7ms
Started at Mon Jul 27 14:15:06 UTC 2020
Finished at Mon Jul 27 14:15:06 UTC 2020. 3ms
Started at Mon Jul 27 14:17:36 UTC 2020
Finished at Mon Jul 27 14:17:36 UTC 2020. 3ms
Started at Mon Jul 27 14:20:06 UTC 2020
Finished at Mon Jul 27 14:20:06 UTC 2020. 5ms
Started at Mon Jul 27 14:22:36 UTC 2020
Finished at Mon Jul 27 14:22:36 UTC 2020. 4ms
Started at Mon Jul 27 14:25:06 UTC 2020
Finished at Mon Jul 27 14:25:06 UTC 2020. 6ms
Started at Mon Jul 27 14:27:36 UTC 2020
Finished at Mon Jul 27 14:27:36 UTC 2020. 4ms
Started at Mon Jul 27 14:30:06 UTC 2020
Finished at Mon Jul 27 14:30:06 UTC 2020. 7ms
Started at Mon Jul 27 14:32:36 UTC 2020
Finished at Mon Jul 27 14:32:36 UTC 2020. 10ms
Started at Mon Jul 27 14:35:06 UTC 2020
Finished at Mon Jul 27 14:35:06 UTC 2020. 6ms
Started at Mon Jul 27 14:37:36 UTC 2020
Finished at Mon Jul 27 14:37:36 UTC 2020. 8ms
Started at Mon Jul 27 14:40:06 UTC 2020
Finished at Mon Jul 27 14:40:06 UTC 2020. 4ms
Started at Mon Jul 27 14:42:36 UTC 2020
Finished at Mon Jul 27 14:42:36 UTC 2020. 4ms
Started at Mon Jul 27 14:45:06 UTC 2020
Finished at Mon Jul 27 14:45:06 UTC 2020. 3ms
Started at Mon Jul 27 14:47:36 UTC 2020
Finished at Mon Jul 27 14:47:36 UTC 2020. 4ms
Started at Mon Jul 27 14:50:06 UTC 2020
Finished at Mon Jul 27 14:50:06 UTC 2020. 4ms
Started at Mon Jul 27 14:52:36 UTC 2020
Finished at Mon Jul 27 14:52:36 UTC 2020. 4ms
Started at Mon Jul 27 14:55:06 UTC 2020
Finished at Mon Jul 27 14:55:06 UTC 2020. 5ms
Started at Mon Jul 27 14:57:36 UTC 2020
Finished at Mon Jul 27 14:57:36 UTC 2020. 4ms
Started at Mon Jul 27 15:00:06 UTC 2020
Finished at Mon Jul 27 15:00:06 UTC 2020. 3ms
Started at Mon Jul 27 15:02:36 UTC 2020
Finished at Mon Jul 27 15:02:36 UTC 2020. 5ms
Started at Mon Jul 27 15:05:06 UTC 2020
Finished at Mon Jul 27 15:05:06 UTC 2020. 5ms
