Started at Tue Jul 28 15:14:11 UTC 2020
Finished at Tue Jul 28 15:14:11 UTC 2020. 35ms
Started at Tue Jul 28 15:16:41 UTC 2020
Finished at Tue Jul 28 15:16:41 UTC 2020. 4ms
Started at Tue Jul 28 15:19:11 UTC 2020
Finished at Tue Jul 28 15:19:11 UTC 2020. 4ms
Started at Tue Jul 28 15:21:41 UTC 2020
Finished at Tue Jul 28 15:21:41 UTC 2020. 7ms
Started at Tue Jul 28 15:24:11 UTC 2020
Finished at Tue Jul 28 15:24:11 UTC 2020. 4ms
Started at Tue Jul 28 15:26:41 UTC 2020
Finished at Tue Jul 28 15:26:41 UTC 2020. 7ms
Started at Tue Jul 28 15:29:11 UTC 2020
Finished at Tue Jul 28 15:29:11 UTC 2020. 8ms
Started at Tue Jul 28 15:31:41 UTC 2020
Finished at Tue Jul 28 15:31:41 UTC 2020. 8ms
Started at Tue Jul 28 15:34:11 UTC 2020
Finished at Tue Jul 28 15:34:11 UTC 2020. 7ms
Started at Tue Jul 28 15:36:41 UTC 2020
Finished at Tue Jul 28 15:36:41 UTC 2020. 6ms
Started at Tue Jul 28 15:39:11 UTC 2020
Finished at Tue Jul 28 15:39:11 UTC 2020. 7ms
Started at Tue Jul 28 15:41:41 UTC 2020
Finished at Tue Jul 28 15:41:41 UTC 2020. 5ms
Started at Tue Jul 28 15:44:11 UTC 2020
Finished at Tue Jul 28 15:44:11 UTC 2020. 6ms
Started at Tue Jul 28 15:46:41 UTC 2020
Finished at Tue Jul 28 15:46:41 UTC 2020. 5ms
Started at Tue Jul 28 15:49:11 UTC 2020
Finished at Tue Jul 28 15:49:11 UTC 2020. 5ms
Started at Tue Jul 28 15:51:41 UTC 2020
Finished at Tue Jul 28 15:51:41 UTC 2020. 6ms
Started at Tue Jul 28 15:54:11 UTC 2020
Finished at Tue Jul 28 15:54:11 UTC 2020. 4ms
Started at Tue Jul 28 15:56:41 UTC 2020
Finished at Tue Jul 28 15:56:41 UTC 2020. 4ms
Started at Tue Jul 28 15:59:11 UTC 2020
Finished at Tue Jul 28 15:59:11 UTC 2020. 8ms
Started at Tue Jul 28 16:01:41 UTC 2020
Finished at Tue Jul 28 16:01:41 UTC 2020. 6ms
Started at Tue Jul 28 16:04:11 UTC 2020
Finished at Tue Jul 28 16:04:11 UTC 2020. 4ms
Started at Tue Jul 28 16:06:41 UTC 2020
Finished at Tue Jul 28 16:06:41 UTC 2020. 4ms
Started at Tue Jul 28 16:09:11 UTC 2020
Finished at Tue Jul 28 16:09:11 UTC 2020. 5ms
Started at Tue Jul 28 16:11:41 UTC 2020
Finished at Tue Jul 28 16:11:41 UTC 2020. 11ms
Started at Tue Jul 28 16:14:11 UTC 2020
Finished at Tue Jul 28 16:14:11 UTC 2020. 6ms
Started at Tue Jul 28 16:16:41 UTC 2020
Finished at Tue Jul 28 16:16:41 UTC 2020. 4ms
Started at Tue Jul 28 16:19:11 UTC 2020
Finished at Tue Jul 28 16:19:11 UTC 2020. 5ms
Started at Tue Jul 28 16:21:41 UTC 2020
Finished at Tue Jul 28 16:21:41 UTC 2020. 4ms
Started at Tue Jul 28 16:24:11 UTC 2020
Finished at Tue Jul 28 16:24:11 UTC 2020. 6ms
Started at Tue Jul 28 16:26:41 UTC 2020
Finished at Tue Jul 28 16:26:41 UTC 2020. 5ms
Started at Tue Jul 28 16:29:11 UTC 2020
Finished at Tue Jul 28 16:29:11 UTC 2020. 4ms
Started at Tue Jul 28 16:31:41 UTC 2020
Finished at Tue Jul 28 16:31:41 UTC 2020. 4ms
Started at Tue Jul 28 16:34:11 UTC 2020
Finished at Tue Jul 28 16:34:11 UTC 2020. 3ms
Started at Tue Jul 28 16:36:41 UTC 2020
Finished at Tue Jul 28 16:36:41 UTC 2020. 5ms
Started at Tue Jul 28 16:39:11 UTC 2020
Finished at Tue Jul 28 16:39:11 UTC 2020. 4ms
Started at Tue Jul 28 16:41:41 UTC 2020
Finished at Tue Jul 28 16:41:41 UTC 2020. 4ms
Started at Tue Jul 28 16:44:11 UTC 2020
Finished at Tue Jul 28 16:44:11 UTC 2020. 9ms
Started at Tue Jul 28 16:46:41 UTC 2020
Finished at Tue Jul 28 16:46:41 UTC 2020. 4ms
Started at Tue Jul 28 16:49:11 UTC 2020
Finished at Tue Jul 28 16:49:11 UTC 2020. 5ms
Started at Tue Jul 28 16:51:41 UTC 2020
Finished at Tue Jul 28 16:51:41 UTC 2020. 7ms
Started at Tue Jul 28 16:54:11 UTC 2020
Finished at Tue Jul 28 16:54:11 UTC 2020. 8ms
Started at Tue Jul 28 16:56:41 UTC 2020
Finished at Tue Jul 28 16:56:41 UTC 2020. 9ms
Started at Tue Jul 28 16:59:11 UTC 2020
Finished at Tue Jul 28 16:59:11 UTC 2020. 5ms
Started at Tue Jul 28 17:01:41 UTC 2020
Finished at Tue Jul 28 17:01:41 UTC 2020. 5ms
Started at Tue Jul 28 17:04:11 UTC 2020
Finished at Tue Jul 28 17:04:11 UTC 2020. 3ms
Started at Tue Jul 28 17:06:41 UTC 2020
Finished at Tue Jul 28 17:06:41 UTC 2020. 3ms
Started at Tue Jul 28 17:09:11 UTC 2020
Finished at Tue Jul 28 17:09:11 UTC 2020. 8ms
Started at Tue Jul 28 17:11:41 UTC 2020
Finished at Tue Jul 28 17:11:41 UTC 2020. 8ms
Started at Tue Jul 28 17:14:11 UTC 2020
Finished at Tue Jul 28 17:14:11 UTC 2020. 8ms
Started at Tue Jul 28 17:16:41 UTC 2020
Finished at Tue Jul 28 17:16:41 UTC 2020. 7ms
Started at Tue Jul 28 17:19:11 UTC 2020
Finished at Tue Jul 28 17:19:11 UTC 2020. 19ms
Started at Tue Jul 28 17:21:41 UTC 2020
Finished at Tue Jul 28 17:21:41 UTC 2020. 3ms
Started at Tue Jul 28 17:24:11 UTC 2020
Finished at Tue Jul 28 17:24:11 UTC 2020. 4ms
Started at Tue Jul 28 17:26:41 UTC 2020
Finished at Tue Jul 28 17:26:41 UTC 2020. 14ms
Started at Tue Jul 28 17:29:11 UTC 2020
Finished at Tue Jul 28 17:29:11 UTC 2020. 4ms
Started at Tue Jul 28 17:31:41 UTC 2020
Finished at Tue Jul 28 17:31:41 UTC 2020. 6ms
Started at Tue Jul 28 17:34:11 UTC 2020
Finished at Tue Jul 28 17:34:11 UTC 2020. 4ms
Started at Tue Jul 28 17:36:41 UTC 2020
Finished at Tue Jul 28 17:36:41 UTC 2020. 7ms
Started at Tue Jul 28 17:39:11 UTC 2020
Finished at Tue Jul 28 17:39:11 UTC 2020. 7ms
Started at Tue Jul 28 17:41:41 UTC 2020
Finished at Tue Jul 28 17:41:41 UTC 2020. 4ms
Started at Tue Jul 28 17:44:11 UTC 2020
Finished at Tue Jul 28 17:44:11 UTC 2020. 5ms
Started at Tue Jul 28 17:46:41 UTC 2020
Finished at Tue Jul 28 17:46:41 UTC 2020. 4ms
Started at Tue Jul 28 17:49:11 UTC 2020
Finished at Tue Jul 28 17:49:11 UTC 2020. 4ms
Started at Tue Jul 28 17:51:41 UTC 2020
Finished at Tue Jul 28 17:51:41 UTC 2020. 7ms
Started at Tue Jul 28 17:54:11 UTC 2020
Finished at Tue Jul 28 17:54:11 UTC 2020. 6ms
Started at Tue Jul 28 17:56:41 UTC 2020
Finished at Tue Jul 28 17:56:41 UTC 2020. 6ms
Started at Tue Jul 28 17:59:11 UTC 2020
Finished at Tue Jul 28 17:59:11 UTC 2020. 7ms
Started at Tue Jul 28 18:01:41 UTC 2020
Finished at Tue Jul 28 18:01:41 UTC 2020. 5ms
Started at Tue Jul 28 18:04:11 UTC 2020
Finished at Tue Jul 28 18:04:11 UTC 2020. 6ms
Started at Tue Jul 28 18:06:41 UTC 2020
Finished at Tue Jul 28 18:06:41 UTC 2020. 4ms
Started at Tue Jul 28 18:09:11 UTC 2020
Finished at Tue Jul 28 18:09:11 UTC 2020. 13ms
Started at Tue Jul 28 18:11:41 UTC 2020
Finished at Tue Jul 28 18:11:41 UTC 2020. 4ms
Started at Tue Jul 28 18:14:11 UTC 2020
Finished at Tue Jul 28 18:14:11 UTC 2020. 8ms
Started at Tue Jul 28 18:16:41 UTC 2020
Finished at Tue Jul 28 18:16:41 UTC 2020. 9ms
Started at Tue Jul 28 18:19:11 UTC 2020
Finished at Tue Jul 28 18:19:11 UTC 2020. 6ms
Started at Tue Jul 28 18:21:41 UTC 2020
Finished at Tue Jul 28 18:21:41 UTC 2020. 4ms
Started at Tue Jul 28 18:24:11 UTC 2020
Finished at Tue Jul 28 18:24:11 UTC 2020. 6ms
Started at Tue Jul 28 18:26:41 UTC 2020
Finished at Tue Jul 28 18:26:41 UTC 2020. 5ms
Started at Tue Jul 28 18:29:11 UTC 2020
Finished at Tue Jul 28 18:29:11 UTC 2020. 5ms
Started at Tue Jul 28 18:31:41 UTC 2020
Finished at Tue Jul 28 18:31:41 UTC 2020. 5ms
Started at Tue Jul 28 18:34:11 UTC 2020
Finished at Tue Jul 28 18:34:11 UTC 2020. 5ms
Started at Tue Jul 28 18:36:41 UTC 2020
Finished at Tue Jul 28 18:36:41 UTC 2020. 6ms
Started at Tue Jul 28 18:39:11 UTC 2020
Finished at Tue Jul 28 18:39:11 UTC 2020. 5ms
Started at Tue Jul 28 18:41:41 UTC 2020
Finished at Tue Jul 28 18:41:41 UTC 2020. 6ms
Started at Tue Jul 28 18:44:11 UTC 2020
Finished at Tue Jul 28 18:44:11 UTC 2020. 8ms
Started at Tue Jul 28 18:46:41 UTC 2020
Finished at Tue Jul 28 18:46:41 UTC 2020. 6ms
Started at Tue Jul 28 18:49:11 UTC 2020
Finished at Tue Jul 28 18:49:11 UTC 2020. 3ms
Started at Tue Jul 28 18:51:41 UTC 2020
Finished at Tue Jul 28 18:51:41 UTC 2020. 3ms
Started at Tue Jul 28 18:54:11 UTC 2020
Finished at Tue Jul 28 18:54:11 UTC 2020. 4ms
Started at Tue Jul 28 18:56:41 UTC 2020
Finished at Tue Jul 28 18:56:41 UTC 2020. 5ms
Started at Tue Jul 28 18:59:11 UTC 2020
Finished at Tue Jul 28 18:59:11 UTC 2020. 5ms
Started at Tue Jul 28 19:01:41 UTC 2020
Finished at Tue Jul 28 19:01:41 UTC 2020. 5ms
Started at Tue Jul 28 19:04:11 UTC 2020
Finished at Tue Jul 28 19:04:11 UTC 2020. 4ms
Started at Tue Jul 28 19:06:41 UTC 2020
Finished at Tue Jul 28 19:06:41 UTC 2020. 8ms
Started at Tue Jul 28 19:09:11 UTC 2020
Finished at Tue Jul 28 19:09:11 UTC 2020. 6ms
Started at Tue Jul 28 19:11:41 UTC 2020
Finished at Tue Jul 28 19:11:41 UTC 2020. 4ms
Started at Tue Jul 28 19:14:11 UTC 2020
Finished at Tue Jul 28 19:14:11 UTC 2020. 4ms
Started at Tue Jul 28 19:16:41 UTC 2020
Finished at Tue Jul 28 19:16:41 UTC 2020. 4ms
Started at Tue Jul 28 19:19:11 UTC 2020
Finished at Tue Jul 28 19:19:11 UTC 2020. 4ms
Started at Tue Jul 28 19:21:41 UTC 2020
Finished at Tue Jul 28 19:21:41 UTC 2020. 6ms
Started at Tue Jul 28 19:24:11 UTC 2020
Finished at Tue Jul 28 19:24:11 UTC 2020. 5ms
Started at Tue Jul 28 19:26:41 UTC 2020
Finished at Tue Jul 28 19:26:41 UTC 2020. 5ms
Started at Tue Jul 28 19:29:11 UTC 2020
Finished at Tue Jul 28 19:29:11 UTC 2020. 5ms
Started at Tue Jul 28 19:31:41 UTC 2020
Finished at Tue Jul 28 19:31:41 UTC 2020. 5ms
Started at Tue Jul 28 19:34:11 UTC 2020
Finished at Tue Jul 28 19:34:11 UTC 2020. 5ms
Started at Tue Jul 28 19:36:41 UTC 2020
Finished at Tue Jul 28 19:36:41 UTC 2020. 5ms
Started at Tue Jul 28 19:39:11 UTC 2020
Finished at Tue Jul 28 19:39:11 UTC 2020. 3ms
Started at Tue Jul 28 19:41:41 UTC 2020
Finished at Tue Jul 28 19:41:41 UTC 2020. 5ms
Started at Tue Jul 28 19:44:11 UTC 2020
Finished at Tue Jul 28 19:44:11 UTC 2020. 5ms
Started at Tue Jul 28 19:46:41 UTC 2020
Finished at Tue Jul 28 19:46:41 UTC 2020. 5ms
Started at Tue Jul 28 19:49:11 UTC 2020
Finished at Tue Jul 28 19:49:11 UTC 2020. 5ms
Started at Tue Jul 28 19:51:41 UTC 2020
Finished at Tue Jul 28 19:51:41 UTC 2020. 6ms
Started at Tue Jul 28 19:54:11 UTC 2020
Finished at Tue Jul 28 19:54:11 UTC 2020. 6ms
Started at Tue Jul 28 19:56:41 UTC 2020
Finished at Tue Jul 28 19:56:41 UTC 2020. 4ms
Started at Tue Jul 28 19:59:11 UTC 2020
Finished at Tue Jul 28 19:59:11 UTC 2020. 8ms
Started at Tue Jul 28 20:01:41 UTC 2020
Finished at Tue Jul 28 20:01:41 UTC 2020. 6ms
