Started at Mon Jul 27 15:34:57 UTC 2020
Finished at Mon Jul 27 15:34:57 UTC 2020. 32ms
Started at Mon Jul 27 15:37:27 UTC 2020
Finished at Mon Jul 27 15:37:27 UTC 2020. 3ms
Started at Mon Jul 27 15:39:57 UTC 2020
Finished at Mon Jul 27 15:39:57 UTC 2020. 5ms
Started at Mon Jul 27 15:42:27 UTC 2020
Finished at Mon Jul 27 15:42:27 UTC 2020. 8ms
Started at Mon Jul 27 15:44:57 UTC 2020
Finished at Mon Jul 27 15:44:57 UTC 2020. 7ms
Started at Mon Jul 27 15:47:27 UTC 2020
Finished at Mon Jul 27 15:47:27 UTC 2020. 5ms
Started at Mon Jul 27 15:49:57 UTC 2020
Finished at Mon Jul 27 15:49:57 UTC 2020. 6ms
Started at Mon Jul 27 15:52:27 UTC 2020
Finished at Mon Jul 27 15:52:27 UTC 2020. 7ms
Started at Mon Jul 27 15:54:57 UTC 2020
Finished at Mon Jul 27 15:54:57 UTC 2020. 7ms
Started at Mon Jul 27 15:57:27 UTC 2020
Finished at Mon Jul 27 15:57:27 UTC 2020. 8ms
Started at Mon Jul 27 15:59:57 UTC 2020
Finished at Mon Jul 27 15:59:57 UTC 2020. 4ms
Started at Mon Jul 27 16:02:27 UTC 2020
Finished at Mon Jul 27 16:02:27 UTC 2020. 4ms
Started at Mon Jul 27 16:04:57 UTC 2020
Finished at Mon Jul 27 16:04:57 UTC 2020. 7ms
Started at Mon Jul 27 16:07:27 UTC 2020
Finished at Mon Jul 27 16:07:27 UTC 2020. 4ms
Started at Mon Jul 27 16:09:57 UTC 2020
Finished at Mon Jul 27 16:09:57 UTC 2020. 6ms
Started at Mon Jul 27 16:12:27 UTC 2020
Finished at Mon Jul 27 16:12:27 UTC 2020. 8ms
Started at Mon Jul 27 16:14:57 UTC 2020
Finished at Mon Jul 27 16:14:57 UTC 2020. 7ms
Started at Mon Jul 27 16:17:27 UTC 2020
Finished at Mon Jul 27 16:17:27 UTC 2020. 8ms
Started at Mon Jul 27 16:19:42 UTC 2020
Finished at Mon Jul 27 16:19:42 UTC 2020. 7ms
Started at Mon Jul 27 16:21:55 UTC 2020
Finished at Mon Jul 27 16:21:55 UTC 2020. 7ms
Started at Mon Jul 27 16:24:20 UTC 2020
Finished at Mon Jul 27 16:24:20 UTC 2020. 4ms
Started at Mon Jul 27 16:26:39 UTC 2020
Finished at Mon Jul 27 16:26:39 UTC 2020. 6ms
Started at Mon Jul 27 16:29:04 UTC 2020
Finished at Mon Jul 27 16:29:04 UTC 2020. 4ms
Started at Mon Jul 27 16:31:34 UTC 2020
Finished at Mon Jul 27 16:31:34 UTC 2020. 7ms
Started at Mon Jul 27 16:34:04 UTC 2020
Finished at Mon Jul 27 16:34:04 UTC 2020. 7ms
Started at Mon Jul 27 16:36:34 UTC 2020
Finished at Mon Jul 27 16:36:34 UTC 2020. 4ms
Started at Mon Jul 27 16:39:04 UTC 2020
Finished at Mon Jul 27 16:39:04 UTC 2020. 7ms
Started at Mon Jul 27 16:41:34 UTC 2020
Finished at Mon Jul 27 16:41:34 UTC 2020. 7ms
Started at Mon Jul 27 16:44:09 UTC 2020
Finished at Mon Jul 27 16:44:09 UTC 2020. 4ms
Started at Mon Jul 27 16:46:39 UTC 2020
Finished at Mon Jul 27 16:46:39 UTC 2020. 5ms
Started at Mon Jul 27 16:49:09 UTC 2020
Finished at Mon Jul 27 16:49:09 UTC 2020. 6ms
Started at Mon Jul 27 16:51:39 UTC 2020
Finished at Mon Jul 27 16:51:39 UTC 2020. 7ms
Started at Mon Jul 27 16:54:09 UTC 2020
Finished at Mon Jul 27 16:54:09 UTC 2020. 5ms
Started at Mon Jul 27 16:56:39 UTC 2020
Finished at Mon Jul 27 16:56:39 UTC 2020. 5ms
Started at Mon Jul 27 16:59:09 UTC 2020
Finished at Mon Jul 27 16:59:09 UTC 2020. 4ms
Started at Mon Jul 27 17:01:39 UTC 2020
Finished at Mon Jul 27 17:01:39 UTC 2020. 8ms
Started at Mon Jul 27 17:04:04 UTC 2020
Finished at Mon Jul 27 17:04:04 UTC 2020. 4ms
Started at Mon Jul 27 17:06:34 UTC 2020
Finished at Mon Jul 27 17:06:34 UTC 2020. 5ms
Started at Mon Jul 27 17:09:04 UTC 2020
Finished at Mon Jul 27 17:09:04 UTC 2020. 4ms
Started at Mon Jul 27 17:11:34 UTC 2020
Finished at Mon Jul 27 17:11:34 UTC 2020. 5ms
Started at Mon Jul 27 17:14:04 UTC 2020
Finished at Mon Jul 27 17:14:04 UTC 2020. 4ms
Started at Mon Jul 27 17:16:34 UTC 2020
Finished at Mon Jul 27 17:16:34 UTC 2020. 5ms
Started at Mon Jul 27 17:19:04 UTC 2020
Finished at Mon Jul 27 17:19:04 UTC 2020. 5ms
Started at Mon Jul 27 17:21:40 UTC 2020
Finished at Mon Jul 27 17:21:40 UTC 2020. 3ms
Started at Mon Jul 27 17:24:15 UTC 2020
Finished at Mon Jul 27 17:24:15 UTC 2020. 3ms
Started at Mon Jul 27 17:26:45 UTC 2020
Finished at Mon Jul 27 17:26:45 UTC 2020. 4ms
Started at Mon Jul 27 17:29:09 UTC 2020
Finished at Mon Jul 27 17:29:09 UTC 2020. 8ms
Started at Mon Jul 27 17:31:34 UTC 2020
Finished at Mon Jul 27 17:31:34 UTC 2020. 5ms
Started at Mon Jul 27 17:34:04 UTC 2020
Finished at Mon Jul 27 17:34:04 UTC 2020. 4ms
Started at Mon Jul 27 17:36:34 UTC 2020
Finished at Mon Jul 27 17:36:34 UTC 2020. 4ms
Started at Mon Jul 27 17:39:04 UTC 2020
Finished at Mon Jul 27 17:39:04 UTC 2020. 5ms
Started at Mon Jul 27 17:41:34 UTC 2020
Finished at Mon Jul 27 17:41:34 UTC 2020. 5ms
Started at Mon Jul 27 17:44:04 UTC 2020
Finished at Mon Jul 27 17:44:04 UTC 2020. 6ms
Started at Mon Jul 27 17:46:34 UTC 2020
Finished at Mon Jul 27 17:46:34 UTC 2020. 4ms
Started at Mon Jul 27 17:48:59 UTC 2020
Finished at Mon Jul 27 17:48:59 UTC 2020. 5ms
Started at Mon Jul 27 17:52:09 UTC 2020
Finished at Mon Jul 27 17:52:09 UTC 2020. 5ms
Started at Mon Jul 27 17:54:23 UTC 2020
Finished at Mon Jul 27 17:54:23 UTC 2020. 4ms
Started at Mon Jul 27 17:56:42 UTC 2020
Finished at Mon Jul 27 17:56:42 UTC 2020. 8ms
Started at Mon Jul 27 17:59:00 UTC 2020
Finished at Mon Jul 27 17:59:00 UTC 2020. 11ms
Started at Mon Jul 27 18:01:30 UTC 2020
Finished at Mon Jul 27 18:01:30 UTC 2020. 6ms
Started at Mon Jul 27 18:04:00 UTC 2020
Finished at Mon Jul 27 18:04:00 UTC 2020. 8ms
Started at Mon Jul 27 18:06:30 UTC 2020
Finished at Mon Jul 27 18:06:30 UTC 2020. 5ms
Started at Mon Jul 27 18:09:00 UTC 2020
Finished at Mon Jul 27 18:09:00 UTC 2020. 9ms
Started at Mon Jul 27 18:11:30 UTC 2020
Finished at Mon Jul 27 18:11:30 UTC 2020. 4ms
Started at Mon Jul 27 18:14:05 UTC 2020
Finished at Mon Jul 27 18:14:06 UTC 2020. 7ms
Started at Mon Jul 27 18:16:35 UTC 2020
Finished at Mon Jul 27 18:16:35 UTC 2020. 2ms
Started at Mon Jul 27 18:19:05 UTC 2020
Finished at Mon Jul 27 18:19:06 UTC 2020. 5ms
Started at Mon Jul 27 18:21:35 UTC 2020
Finished at Mon Jul 27 18:21:36 UTC 2020. 7ms
Started at Mon Jul 27 18:24:05 UTC 2020
Finished at Mon Jul 27 18:24:06 UTC 2020. 7ms
Started at Mon Jul 27 18:26:35 UTC 2020
Finished at Mon Jul 27 18:26:36 UTC 2020. 7ms
