Started at Mon Jul 27 20:52:36 UTC 2020
Finished at Mon Jul 27 20:52:36 UTC 2020. 60ms
Started at Mon Jul 27 20:55:06 UTC 2020
Finished at Mon Jul 27 20:55:06 UTC 2020. 29ms
Started at Mon Jul 27 20:57:36 UTC 2020
Finished at Mon Jul 27 20:57:36 UTC 2020. 5ms
Started at Mon Jul 27 21:00:06 UTC 2020
Finished at Mon Jul 27 21:00:06 UTC 2020. 14ms
Started at Mon Jul 27 21:02:36 UTC 2020
Finished at Mon Jul 27 21:02:36 UTC 2020. 23ms
Started at Mon Jul 27 21:05:06 UTC 2020
Finished at Mon Jul 27 21:05:06 UTC 2020. 14ms
Started at Mon Jul 27 21:07:36 UTC 2020
Finished at Mon Jul 27 21:07:36 UTC 2020. 9ms
Started at Mon Jul 27 21:10:06 UTC 2020
Finished at Mon Jul 27 21:10:06 UTC 2020. 14ms
Started at Mon Jul 27 21:12:36 UTC 2020
Finished at Mon Jul 27 21:12:36 UTC 2020. 21ms
Started at Mon Jul 27 21:15:06 UTC 2020
Finished at Mon Jul 27 21:15:06 UTC 2020. 11ms
Started at Tue Jul 28 01:00:07 UTC 2020
Finished at Tue Jul 28 01:00:07 UTC 2020. 6ms
Started at Tue Jul 28 01:02:37 UTC 2020
Finished at Tue Jul 28 01:02:37 UTC 2020. 15ms
Started at Tue Jul 28 01:05:07 UTC 2020
Finished at Tue Jul 28 01:05:07 UTC 2020. 12ms
Started at Tue Jul 28 01:07:37 UTC 2020
Finished at Tue Jul 28 01:07:37 UTC 2020. 22ms
Started at Tue Jul 28 01:10:07 UTC 2020
Finished at Tue Jul 28 01:10:07 UTC 2020. 11ms
Started at Tue Jul 28 01:12:37 UTC 2020
Finished at Tue Jul 28 01:12:37 UTC 2020. 8ms
Started at Tue Jul 28 01:15:07 UTC 2020
Finished at Tue Jul 28 01:15:07 UTC 2020. 18ms
Started at Tue Jul 28 01:17:37 UTC 2020
Finished at Tue Jul 28 01:17:37 UTC 2020. 6ms
Started at Tue Jul 28 01:20:07 UTC 2020
Finished at Tue Jul 28 01:20:07 UTC 2020. 12ms
Started at Tue Jul 28 01:22:37 UTC 2020
Finished at Tue Jul 28 01:22:37 UTC 2020. 10ms
Started at Tue Jul 28 01:25:07 UTC 2020
Finished at Tue Jul 28 01:25:07 UTC 2020. 16ms
Started at Tue Jul 28 01:27:37 UTC 2020
Finished at Tue Jul 28 01:27:37 UTC 2020. 6ms
Started at Tue Jul 28 01:30:07 UTC 2020
Finished at Tue Jul 28 01:30:07 UTC 2020. 13ms
Started at Tue Jul 28 01:32:37 UTC 2020
Finished at Tue Jul 28 01:32:37 UTC 2020. 20ms
Started at Tue Jul 28 01:35:07 UTC 2020
Finished at Tue Jul 28 01:35:07 UTC 2020. 4ms
Started at Tue Jul 28 01:38:37 UTC 2020
Finished at Tue Jul 28 01:38:37 UTC 2020. 6ms
Started at Tue Jul 28 01:41:07 UTC 2020
Finished at Tue Jul 28 01:41:08 UTC 2020. 21ms
Started at Tue Jul 28 01:43:37 UTC 2020
Finished at Tue Jul 28 01:43:38 UTC 2020. 7ms
Started at Tue Jul 28 01:46:07 UTC 2020
Finished at Tue Jul 28 01:46:07 UTC 2020. 6ms
Started at Tue Jul 28 01:48:37 UTC 2020
Finished at Tue Jul 28 01:48:38 UTC 2020. 14ms
Started at Tue Jul 28 01:51:07 UTC 2020
Finished at Tue Jul 28 01:51:08 UTC 2020. 10ms
Started at Tue Jul 28 01:53:37 UTC 2020
Finished at Tue Jul 28 01:53:38 UTC 2020. 8ms
Started at Tue Jul 28 01:56:07 UTC 2020
Finished at Tue Jul 28 01:56:08 UTC 2020. 13ms
Started at Tue Jul 28 01:58:37 UTC 2020
Finished at Tue Jul 28 01:58:38 UTC 2020. 15ms
Started at Tue Jul 28 02:01:07 UTC 2020
Finished at Tue Jul 28 02:01:08 UTC 2020. 22ms
Started at Tue Jul 28 02:03:37 UTC 2020
Finished at Tue Jul 28 02:03:38 UTC 2020. 15ms
Started at Tue Jul 28 02:06:07 UTC 2020
Finished at Tue Jul 28 02:06:08 UTC 2020. 8ms
Started at Tue Jul 28 02:08:37 UTC 2020
Finished at Tue Jul 28 02:08:38 UTC 2020. 16ms
Started at Tue Jul 28 02:11:07 UTC 2020
Finished at Tue Jul 28 02:11:07 UTC 2020. 5ms
Started at Tue Jul 28 02:13:37 UTC 2020
Finished at Tue Jul 28 02:13:38 UTC 2020. 15ms
